\relax 
\@writefile{toc}{\contentsline {section}{\numberline {1}Assignment description}{1}}
\@writefile{toc}{\contentsline {subsection}{\numberline {1.1}Input-Output example}{1}}
\@writefile{lof}{\contentsline {figure}{\numberline {1}{\ignorespaces Example execution}}{1}}
\@writefile{toc}{\contentsline {section}{\numberline {2}Algorithm description}{1}}
\@writefile{toc}{\contentsline {section}{\numberline {3}Implementation}{2}}
\@writefile{lof}{\contentsline {figure}{\numberline {2}{\ignorespaces Tree edge numbering}}{2}}
\@writefile{toc}{\contentsline {subsection}{\numberline {3.1}Per processor information}{2}}
\@writefile{toc}{\contentsline {subsection}{\numberline {3.2}Creation of euler tour}{3}}
\@writefile{toc}{\contentsline {subsection}{\numberline {3.3}Weight suffix sum}{3}}
\@writefile{toc}{\contentsline {subsection}{\numberline {3.4}Collection and output}{3}}
\@writefile{toc}{\contentsline {section}{\numberline {4}Performance \& complexity}{4}}
\@writefile{toc}{\contentsline {section}{\numberline {5}Conclusion}{4}}
