-- Logs begin at Wed 2018-04-11 10:33:25 CEST, end at Wed 2018-04-11 10:37:29 CEST. --
Apr 11 10:33:40 ubuntu systemd[1]: Started ISC DHCP IPv4 server.
Apr 11 10:33:44 ubuntu sh[667]: Internet Systems Consortium DHCP Server 4.3.5
Apr 11 10:33:44 ubuntu sh[667]: Copyright 2004-2016 Internet Systems Consortium.
Apr 11 10:33:44 ubuntu sh[667]: All rights reserved.
Apr 11 10:33:44 ubuntu sh[667]: For info, please visit https://www.isc.org/software/dhcp/
Apr 11 10:33:44 ubuntu dhcpd[667]: Internet Systems Consortium DHCP Server 4.3.5
Apr 11 10:33:44 ubuntu dhcpd[667]: Copyright 2004-2016 Internet Systems Consortium.
Apr 11 10:33:44 ubuntu dhcpd[667]: All rights reserved.
Apr 11 10:33:44 ubuntu dhcpd[667]: For info, please visit https://www.isc.org/software/dhcp/
Apr 11 10:33:44 ubuntu dhcpd[667]: Config file: /etc/dhcp/dhcpd.conf
Apr 11 10:33:44 ubuntu sh[667]: Config file: /etc/dhcp/dhcpd.conf
Apr 11 10:33:44 ubuntu dhcpd[667]: Database file: /var/lib/dhcp/dhcpd.leases
Apr 11 10:33:44 ubuntu sh[667]: Database file: /var/lib/dhcp/dhcpd.leases
Apr 11 10:33:44 ubuntu dhcpd[667]: PID file: /run/dhcp-server/dhcpd.pid
Apr 11 10:33:44 ubuntu sh[667]: PID file: /run/dhcp-server/dhcpd.pid
Apr 11 10:33:44 ubuntu dhcpd[667]: Wrote 249 leases to leases file.
Apr 11 10:33:44 ubuntu sh[667]: Wrote 249 leases to leases file.
Apr 11 10:33:44 ubuntu dhcpd[667]: 
Apr 11 10:33:44 ubuntu sh[667]: No subnet declaration for enp0s8 (10.0.3.15).
Apr 11 10:33:44 ubuntu sh[667]: ** Ignoring requests on enp0s8.  If this is not what
Apr 11 10:33:44 ubuntu sh[667]:    you want, please write a subnet declaration
Apr 11 10:33:44 ubuntu sh[667]:    in your dhcpd.conf file for the network segment
Apr 11 10:33:44 ubuntu sh[667]:    to which interface enp0s8 is attached. **
Apr 11 10:33:44 ubuntu sh[667]: Listening on LPF/enp0s3/08:00:27:ba:29:38/192.168.0.0/24
Apr 11 10:33:44 ubuntu sh[667]: Sending on   LPF/enp0s3/08:00:27:ba:29:38/192.168.0.0/24
Apr 11 10:33:44 ubuntu sh[667]: Sending on   Socket/fallback/fallback-net
Apr 11 10:33:44 ubuntu dhcpd[667]: No subnet declaration for enp0s8 (10.0.3.15).
Apr 11 10:33:44 ubuntu dhcpd[667]: ** Ignoring requests on enp0s8.  If this is not what
Apr 11 10:33:44 ubuntu dhcpd[667]:    you want, please write a subnet declaration
Apr 11 10:33:44 ubuntu dhcpd[667]:    in your dhcpd.conf file for the network segment
Apr 11 10:33:44 ubuntu dhcpd[667]:    to which interface enp0s8 is attached. **
Apr 11 10:33:44 ubuntu dhcpd[667]: 
Apr 11 10:33:44 ubuntu dhcpd[667]: Listening on LPF/enp0s3/08:00:27:ba:29:38/192.168.0.0/24
Apr 11 10:33:44 ubuntu dhcpd[667]: Sending on   LPF/enp0s3/08:00:27:ba:29:38/192.168.0.0/24
Apr 11 10:33:44 ubuntu dhcpd[667]: Sending on   Socket/fallback/fallback-net
Apr 11 10:33:44 ubuntu dhcpd[667]: Server starting service.
Apr 11 10:33:48 ubuntu dhcpd[667]: DHCPDISCOVER from 08:00:27:21:5f:71 via enp0s3
Apr 11 10:33:49 ubuntu dhcpd[667]: DHCPOFFER on 192.168.0.218 to 08:00:27:21:5f:71 (ubuntu) via enp0s3
Apr 11 10:33:49 ubuntu dhcpd[667]: DHCPREQUEST for 192.168.0.218 (192.168.0.1) from 08:00:27:21:5f:71 (ubuntu) via enp0s3
Apr 11 10:33:49 ubuntu dhcpd[667]: DHCPACK on 192.168.0.218 to 08:00:27:21:5f:71 (ubuntu) via enp0s3
Apr 11 10:33:50 ubuntu dhcpd[667]: DHCPDISCOVER from 08:00:27:62:2e:4d (ubuntu) via enp0s3
Apr 11 10:33:50 ubuntu dhcpd[667]: DHCPOFFER on 192.168.0.218 to 08:00:27:62:2e:4d (ubuntu) via enp0s3
Apr 11 10:33:50 ubuntu dhcpd[667]: DHCPREQUEST for 192.168.0.218 (192.168.0.1) from 08:00:27:62:2e:4d (ubuntu) via enp0s3
Apr 11 10:33:50 ubuntu dhcpd[667]: DHCPACK on 192.168.0.218 to 08:00:27:62:2e:4d (ubuntu) via enp0s3
Apr 11 10:35:51 ubuntu dhcpd[667]: DHCPDISCOVER from 66:c6:69:73:51:ff via enp0s3
Apr 11 10:35:52 ubuntu dhcpd[667]: DHCPOFFER on 192.168.0.46 to 66:c6:69:73:51:ff via enp0s3
Apr 11 10:35:52 ubuntu dhcpd[667]: DHCPREQUEST for 192.168.0.46 (192.168.0.1) from 66:c6:69:73:51:ff via enp0s3
Apr 11 10:35:52 ubuntu dhcpd[667]: DHCPACK on 192.168.0.46 to 66:c6:69:73:51:ff via enp0s3
Apr 11 10:35:52 ubuntu dhcpd[667]: DHCPDISCOVER from ec:29:cd:ba:ab:f2 via enp0s3
Apr 11 10:35:53 ubuntu dhcpd[667]: DHCPOFFER on 192.168.0.8 to ec:29:cd:ba:ab:f2 via enp0s3
Apr 11 10:35:53 ubuntu dhcpd[667]: DHCPREQUEST for 192.168.0.8 (192.168.0.1) from ec:29:cd:ba:ab:f2 via enp0s3
Apr 11 10:35:53 ubuntu dhcpd[667]: DHCPACK on 192.168.0.8 to ec:29:cd:ba:ab:f2 via enp0s3
Apr 11 10:35:53 ubuntu dhcpd[667]: DHCPDISCOVER from e2:46:7c:c2:54:f8 via enp0s3
Apr 11 10:35:54 ubuntu dhcpd[667]: DHCPOFFER on 192.168.0.47 to e2:46:7c:c2:54:f8 via enp0s3
Apr 11 10:35:54 ubuntu dhcpd[667]: DHCPREQUEST for 192.168.0.47 (192.168.0.1) from e2:46:7c:c2:54:f8 via enp0s3
Apr 11 10:35:54 ubuntu dhcpd[667]: DHCPACK on 192.168.0.47 to e2:46:7c:c2:54:f8 via enp0s3
Apr 11 10:35:54 ubuntu dhcpd[667]: DHCPDISCOVER from e8:e7:8d:76:5a:2e via enp0s3
Apr 11 10:35:55 ubuntu dhcpd[667]: DHCPOFFER on 192.168.0.10 to e8:e7:8d:76:5a:2e via enp0s3
Apr 11 10:35:55 ubuntu dhcpd[667]: DHCPREQUEST for 192.168.0.10 (192.168.0.1) from e8:e7:8d:76:5a:2e via enp0s3
Apr 11 10:35:55 ubuntu dhcpd[667]: DHCPACK on 192.168.0.10 to e8:e7:8d:76:5a:2e via enp0s3
Apr 11 10:35:55 ubuntu dhcpd[667]: DHCPDISCOVER from 22:9f:c9:9a:66:32 via enp0s3
Apr 11 10:35:56 ubuntu dhcpd[667]: DHCPOFFER on 192.168.0.48 to 22:9f:c9:9a:66:32 via enp0s3
Apr 11 10:35:56 ubuntu dhcpd[667]: DHCPREQUEST for 192.168.0.48 (192.168.0.1) from 22:9f:c9:9a:66:32 via enp0s3
Apr 11 10:35:56 ubuntu dhcpd[667]: DHCPACK on 192.168.0.48 to 22:9f:c9:9a:66:32 via enp0s3
Apr 11 10:35:56 ubuntu dhcpd[667]: DHCPDISCOVER from a6:31:58:a3:5a:25 via enp0s3
Apr 11 10:35:57 ubuntu dhcpd[667]: DHCPOFFER on 192.168.0.49 to a6:31:58:a3:5a:25 via enp0s3
Apr 11 10:35:57 ubuntu dhcpd[667]: DHCPREQUEST for 192.168.0.49 (192.168.0.1) from a6:31:58:a3:5a:25 via enp0s3
Apr 11 10:35:57 ubuntu dhcpd[667]: DHCPACK on 192.168.0.49 to a6:31:58:a3:5a:25 via enp0s3
Apr 11 10:35:57 ubuntu dhcpd[667]: DHCPDISCOVER from 04:17:58:e9:5e:d4 via enp0s3
Apr 11 10:35:58 ubuntu dhcpd[667]: DHCPOFFER on 192.168.0.50 to 04:17:58:e9:5e:d4 via enp0s3
