\relax 
\@writefile{toc}{\contentsline {section}{\numberline {1}Merge-splitting sort}{1}}
\@writefile{toc}{\contentsline {subsection}{\numberline {1.1}Analysis}{1}}
\@writefile{toc}{\contentsline {section}{\numberline {2}Implementation}{1}}
\@writefile{toc}{\contentsline {subsection}{\numberline {2.1}Communication}{2}}
\@writefile{lof}{\contentsline {figure}{\numberline {1}{\ignorespaces Communication sequence diagram}}{2}}
\@writefile{toc}{\contentsline {subsection}{\numberline {2.2}Invalid number of items}{3}}
\@writefile{toc}{\contentsline {section}{\numberline {3}Performance}{3}}
\@writefile{lof}{\contentsline {figure}{\numberline {2}{\ignorespaces Achieved performance measurements}}{3}}
