# Fdb version 3
["pdflatex"] 1523211852 "/home/semtexzv/fit-mit-projects/PRL/p2/doc/doc.tex" "doc.pdf" "doc" 1523211853
  "../plot.png" 1523211636 57979 298b1253999ce63630958c15cff4ec7d ""
  "/home/semtexzv/fit-mit-projects/PRL/p2/doc/doc.tex" 1523211852 5423 4d05ed037e5071895f12c4fe27aef1da ""
  "/usr/share/texmf-dist/fonts/map/fontname/texfonts.map" 1520157216 3332 103109f5612ad95229751940c61aada0 ""
  "/usr/share/texmf-dist/fonts/tfm/public/cm/cmbx10.tfm" 1520157226 1328 c834bbb027764024c09d3d2bf908b5f0 ""
  "/usr/share/texmf-dist/fonts/tfm/public/cm/cmbx12.tfm" 1520157226 1324 c910af8c371558dc20f2d7822f66fe64 ""
  "/usr/share/texmf-dist/fonts/tfm/public/cm/cmmi10.tfm" 1520157226 1528 abec98dbc43e172678c11b3b9031252a ""
  "/usr/share/texmf-dist/fonts/tfm/public/cm/cmmi12.tfm" 1520157226 1524 4414a8315f39513458b80dfc63bff03a ""
  "/usr/share/texmf-dist/fonts/tfm/public/cm/cmmi6.tfm" 1520157226 1512 f21f83efb36853c0b70002322c1ab3ad ""
  "/usr/share/texmf-dist/fonts/tfm/public/cm/cmmi8.tfm" 1520157226 1520 eccf95517727cb11801f4f1aee3a21b4 ""
  "/usr/share/texmf-dist/fonts/tfm/public/cm/cmr10.tfm" 1520157226 1296 45809c5a464d5f32c8f98ba97c1bb47f ""
  "/usr/share/texmf-dist/fonts/tfm/public/cm/cmr12.tfm" 1520157226 1288 655e228510b4c2a1abe905c368440826 ""
  "/usr/share/texmf-dist/fonts/tfm/public/cm/cmr17.tfm" 1520157226 1292 296a67155bdbfc32aa9c636f21e91433 ""
  "/usr/share/texmf-dist/fonts/tfm/public/cm/cmr6.tfm" 1520157226 1300 b62933e007d01cfd073f79b963c01526 ""
  "/usr/share/texmf-dist/fonts/tfm/public/cm/cmr8.tfm" 1520157226 1292 21c1c5bfeaebccffdb478fd231a0997d ""
  "/usr/share/texmf-dist/fonts/tfm/public/cm/cmsy10.tfm" 1520157226 1124 6c73e740cf17375f03eec0ee63599741 ""
  "/usr/share/texmf-dist/fonts/tfm/public/cm/cmsy6.tfm" 1520157226 1116 933a60c408fc0a863a92debe84b2d294 ""
  "/usr/share/texmf-dist/fonts/tfm/public/cm/cmsy8.tfm" 1520157226 1120 8b7d695260f3cff42e636090a8002094 ""
  "/usr/share/texmf-dist/fonts/tfm/public/cm/cmtt10.tfm" 1520157225 768 1321e9409b4137d6fb428ac9dc956269 ""
  "/usr/share/texmf-dist/fonts/type1/public/amsfonts/cm/cmbx10.pfb" 1520157214 34811 78b52f49e893bcba91bd7581cdc144c0 ""
  "/usr/share/texmf-dist/fonts/type1/public/amsfonts/cm/cmbx12.pfb" 1520157214 32080 340ef9bf63678554ee606688e7b5339d ""
  "/usr/share/texmf-dist/fonts/type1/public/amsfonts/cm/cmmi10.pfb" 1520157213 36299 5f9df58c2139e7edcf37c8fca4bd384d ""
  "/usr/share/texmf-dist/fonts/type1/public/amsfonts/cm/cmr10.pfb" 1520157213 35752 024fb6c41858982481f6968b5fc26508 ""
  "/usr/share/texmf-dist/fonts/type1/public/amsfonts/cm/cmr12.pfb" 1520157213 32722 d7379af29a190c3f453aba36302ff5a9 ""
  "/usr/share/texmf-dist/fonts/type1/public/amsfonts/cm/cmr17.pfb" 1520157213 32362 179c33bbf43f19adbb3825bb4e36e57a ""
  "/usr/share/texmf-dist/fonts/type1/public/amsfonts/cm/cmsy10.pfb" 1520157213 32569 5e5ddc8df908dea60932f3c484a54c0d ""
  "/usr/share/texmf-dist/fonts/type1/public/amsfonts/cm/cmtt10.pfb" 1520157213 31099 c85edf1dd5b9e826d67c9c7293b6786c ""
  "/usr/share/texmf-dist/tex/context/base/mkii/supp-pdf.mkii" 1520157251 71627 94eb9990bed73c364d7f53f960cc8c5b ""
  "/usr/share/texmf-dist/tex/generic/oberdiek/etexcmds.sty" 1520157236 7612 729a8cc22a1ee0029997c7f74717ae05 ""
  "/usr/share/texmf-dist/tex/generic/oberdiek/ifluatex.sty" 1520157236 7324 2310d1247db0114eb4726807c8837a0e ""
  "/usr/share/texmf-dist/tex/generic/oberdiek/ifpdf.sty" 1520157236 1251 d170e11a3246c3392bc7f59595af42cb ""
  "/usr/share/texmf-dist/tex/generic/oberdiek/infwarerr.sty" 1520157236 8253 473e0e41f9adadb1977e8631b8f72ea6 ""
  "/usr/share/texmf-dist/tex/generic/oberdiek/kvdefinekeys.sty" 1520157236 5152 b67a3a964ad9851e095110c854a1d461 ""
  "/usr/share/texmf-dist/tex/generic/oberdiek/kvsetkeys.sty" 1520157236 14040 ac8866aac45982ac84021584b0abb252 ""
  "/usr/share/texmf-dist/tex/generic/oberdiek/ltxcmds.sty" 1520157236 18425 5b3c0c59d76fac78978b5558e83c1f36 ""
  "/usr/share/texmf-dist/tex/generic/oberdiek/pdftexcmds.sty" 1520157236 20151 787afc7acba22d228640bdc06ce1177c ""
  "/usr/share/texmf-dist/tex/latex/a4wide/a4wide.sty" 1520158244 1635 717cb53b4323c7ff0cf7f675b11dfe05 ""
  "/usr/share/texmf-dist/tex/latex/base/article.cls" 1520157233 19821 310da678527a7dfe2a02c88af38079b7 ""
  "/usr/share/texmf-dist/tex/latex/base/inputenc.sty" 1520157233 4732 d63eda807ac82cca2ca8488efd31a966 ""
  "/usr/share/texmf-dist/tex/latex/base/omsenc.dfu" 1520157233 2004 ac51aeac484f08c01026120d62677eca ""
  "/usr/share/texmf-dist/tex/latex/base/ot1enc.dfu" 1520157232 3181 1cb3e9ad01f4a01127b2ffd821bfeec7 ""
  "/usr/share/texmf-dist/tex/latex/base/size11.clo" 1520157232 8308 f91506bb4df6d8527331f7bbeaf0e63c ""
  "/usr/share/texmf-dist/tex/latex/base/t1enc.dfu" 1520157232 11255 9d97362866549d3d3c994b5f28d1b9b5 ""
  "/usr/share/texmf-dist/tex/latex/base/utf8.def" 1520157232 7784 325a2a09984cb5c4ff230f9867145ad3 ""
  "/usr/share/texmf-dist/tex/latex/graphics-cfg/graphics.cfg" 1520157233 1224 978390e9c2234eab29404bc21b268d1e ""
  "/usr/share/texmf-dist/tex/latex/graphics-def/pdftex.def" 1520157233 17334 520b9b85ad8a2a48eda3f643e27a5179 ""
  "/usr/share/texmf-dist/tex/latex/graphics/graphics.sty" 1520157233 15275 7d676729b1bedd3e7f3c6717affb366c ""
  "/usr/share/texmf-dist/tex/latex/graphics/graphicx.sty" 1520157233 9066 649f2ccf62888e3d8c3e57256b70b8e1 ""
  "/usr/share/texmf-dist/tex/latex/graphics/keyval.sty" 1520157233 2594 d18d5e19aa8239cf867fa670c556d2e9 ""
  "/usr/share/texmf-dist/tex/latex/graphics/trig.sty" 1520157233 3980 0a268fbfda01e381fa95821ab13b6aee ""
  "/usr/share/texmf-dist/tex/latex/latexconfig/epstopdf-sys.cfg" 1520157233 678 4792914a8f45be57bb98413425e4c7af ""
  "/usr/share/texmf-dist/tex/latex/ntgclass/a4.sty" 1520157232 4634 297db5b00844da9a761d5b410c03f87c ""
  "/usr/share/texmf-dist/tex/latex/oberdiek/epstopdf-base.sty" 1520157232 12095 5337833c991d80788a43d3ce26bd1c46 ""
  "/usr/share/texmf-dist/tex/latex/oberdiek/grfext.sty" 1520157232 7075 2fe3d848bba95f139de11ded085e74aa ""
  "/usr/share/texmf-dist/tex/latex/oberdiek/kvoptions.sty" 1520157232 22417 1d9df1eb66848aa31b18a593099cf45c ""
  "/usr/share/texmf-dist/web2c/texmf.cnf" 1520157258 32585 d82bbcf7626b7842c87671687479e852 ""
  "/var/lib/texmf/fonts/map/pdftex/updmap/pdftex.map" 1522475192 334558 251d30f17b3577cdd1466e2c153b195d ""
  "/var/lib/texmf/web2c/pdftex/pdflatex.fmt" 1520351678 7738160 cdbc168333adc2e8b03d1537cc722d41 ""
  "doc.aux" 1523211853 701 e47aa6d7815c63e19fa909a978b15418 ""
  "doc.tex" 1523211852 5423 4d05ed037e5071895f12c4fe27aef1da ""
  "sequence.png" 1522429822 96396 87a6e89b8b975cef5d13ef1bc0f88825 ""
  (generated)
  "doc.log"
  "doc.pdf"
  "doc.aux"
