# Fdb version 3
["bibtex doc"] 1523439964 "doc.aux" "doc.bbl" "doc" 1523439965
  "/usr/share/texmf-dist/bibtex/bst/biblatex/biblatex.bst" 1520151864 63137 1eef042be76fa9262fed2413ad573404 ""
  "doc-blx.bib" 1523439964 306 8aaf130409042efa77015fcb01433692 ""
  "doc.aux" 1523439965 7512 2bd016ebf61e4201d081a41f0b9304a1 ""
  "doc.bib" 1520407938 621 3d62d6d7c3d2d67ce9eb9c3737fa0a32 ""
  (generated)
  "doc.blg"
  "doc.bbl"
["pdflatex"] 1523439964 "/home/semtexzv/fit-mit-projects/PDS/dhcp-attacks/doc/doc.tex" "doc.pdf" "doc" 1523439965
  "../../rogue-log.txt" 1523437520 10788 fad13e55078957b284b640c9e929242c ""
  "../../starve-log.txt" 1523438944 6057 3e44ded81ff3c8f74bcaddacad7f2211 ""
  "/home/semtexzv/fit-mit-projects/PDS/dhcp-attacks/doc/doc.tex" 1523439962 17045 d7d04c55e285ca93e6458b2fb93e6941 ""
  "/usr/share/texmf-dist/fonts/map/fontname/texfonts.map" 1520157216 3332 103109f5612ad95229751940c61aada0 ""
  "/usr/share/texmf-dist/fonts/tfm/public/cm/cmbx10.tfm" 1520157226 1328 c834bbb027764024c09d3d2bf908b5f0 ""
  "/usr/share/texmf-dist/fonts/tfm/public/cm/cmbx12.tfm" 1520157226 1324 c910af8c371558dc20f2d7822f66fe64 ""
  "/usr/share/texmf-dist/fonts/tfm/public/cm/cmcsc10.tfm" 1520157226 1300 63a6111ee6274895728663cf4b4e7e81 ""
  "/usr/share/texmf-dist/fonts/tfm/public/cm/cmmi12.tfm" 1520157226 1524 4414a8315f39513458b80dfc63bff03a ""
  "/usr/share/texmf-dist/fonts/tfm/public/cm/cmmi6.tfm" 1520157226 1512 f21f83efb36853c0b70002322c1ab3ad ""
  "/usr/share/texmf-dist/fonts/tfm/public/cm/cmmi8.tfm" 1520157226 1520 eccf95517727cb11801f4f1aee3a21b4 ""
  "/usr/share/texmf-dist/fonts/tfm/public/cm/cmr12.tfm" 1520157226 1288 655e228510b4c2a1abe905c368440826 ""
  "/usr/share/texmf-dist/fonts/tfm/public/cm/cmr17.tfm" 1520157226 1292 296a67155bdbfc32aa9c636f21e91433 ""
  "/usr/share/texmf-dist/fonts/tfm/public/cm/cmr6.tfm" 1520157226 1300 b62933e007d01cfd073f79b963c01526 ""
  "/usr/share/texmf-dist/fonts/tfm/public/cm/cmr8.tfm" 1520157226 1292 21c1c5bfeaebccffdb478fd231a0997d ""
  "/usr/share/texmf-dist/fonts/tfm/public/cm/cmsy10.tfm" 1520157226 1124 6c73e740cf17375f03eec0ee63599741 ""
  "/usr/share/texmf-dist/fonts/tfm/public/cm/cmsy6.tfm" 1520157226 1116 933a60c408fc0a863a92debe84b2d294 ""
  "/usr/share/texmf-dist/fonts/tfm/public/cm/cmsy8.tfm" 1520157226 1120 8b7d695260f3cff42e636090a8002094 ""
  "/usr/share/texmf-dist/fonts/tfm/public/cm/cmti10.tfm" 1520157226 1480 aa8e34af0eb6a2941b776984cf1dfdc4 ""
  "/usr/share/texmf-dist/fonts/tfm/public/cm/cmtt10.tfm" 1520157225 768 1321e9409b4137d6fb428ac9dc956269 ""
  "/usr/share/texmf-dist/fonts/tfm/public/cm/cmtt8.tfm" 1520157225 768 d7b9a2629a0c353102ad947dc9221d49 ""
  "/usr/share/texmf-dist/fonts/type1/public/amsfonts/cm/cmbx10.pfb" 1520157214 34811 78b52f49e893bcba91bd7581cdc144c0 ""
  "/usr/share/texmf-dist/fonts/type1/public/amsfonts/cm/cmbx12.pfb" 1520157214 32080 340ef9bf63678554ee606688e7b5339d ""
  "/usr/share/texmf-dist/fonts/type1/public/amsfonts/cm/cmcsc10.pfb" 1520157213 32001 6aeea3afe875097b1eb0da29acd61e28 ""
  "/usr/share/texmf-dist/fonts/type1/public/amsfonts/cm/cmr10.pfb" 1520157213 35752 024fb6c41858982481f6968b5fc26508 ""
  "/usr/share/texmf-dist/fonts/type1/public/amsfonts/cm/cmr12.pfb" 1520157213 32722 d7379af29a190c3f453aba36302ff5a9 ""
  "/usr/share/texmf-dist/fonts/type1/public/amsfonts/cm/cmr17.pfb" 1520157213 32362 179c33bbf43f19adbb3825bb4e36e57a ""
  "/usr/share/texmf-dist/fonts/type1/public/amsfonts/cm/cmsy10.pfb" 1520157213 32569 5e5ddc8df908dea60932f3c484a54c0d ""
  "/usr/share/texmf-dist/fonts/type1/public/amsfonts/cm/cmti10.pfb" 1520157213 37944 359e864bd06cde3b1cf57bb20757fb06 ""
  "/usr/share/texmf-dist/fonts/type1/public/amsfonts/cm/cmtt10.pfb" 1520157213 31099 c85edf1dd5b9e826d67c9c7293b6786c ""
  "/usr/share/texmf-dist/fonts/type1/public/amsfonts/cm/cmtt8.pfb" 1520157213 24287 6b803fa9eb1ddff9112e00519b09dd9e ""
  "/usr/share/texmf-dist/tex/context/base/mkii/supp-pdf.mkii" 1520157251 71627 94eb9990bed73c364d7f53f960cc8c5b ""
  "/usr/share/texmf-dist/tex/generic/ifxetex/ifxetex.sty" 1520157235 1458 43ab4710dc82f3edeabecd0d099626b2 ""
  "/usr/share/texmf-dist/tex/generic/oberdiek/gettitlestring.sty" 1520157236 8237 3b62ef1f7e2c23a328c814b3893bc11f ""
  "/usr/share/texmf-dist/tex/generic/oberdiek/hobsub-generic.sty" 1520157236 185082 6c11d4e30ed78e2a12957b7e77030856 ""
  "/usr/share/texmf-dist/tex/generic/oberdiek/hobsub-hyperref.sty" 1520157236 70864 bcd5b216757bd619ae692a151d90085d ""
  "/usr/share/texmf-dist/tex/generic/oberdiek/ifpdf.sty" 1520157236 1251 d170e11a3246c3392bc7f59595af42cb ""
  "/usr/share/texmf-dist/tex/generic/oberdiek/ifvtex.sty" 1520157236 6797 90b7f83b0ad46826bc16058b1e3d48df ""
  "/usr/share/texmf-dist/tex/generic/xstring/xstring.sty" 1520158244 144 0ca8d67b000b795a4d9ec000e0fd09c7 ""
  "/usr/share/texmf-dist/tex/generic/xstring/xstring.tex" 1520158244 54373 fd4487ae3e45d4074bc89aea1d2b6807 ""
  "/usr/share/texmf-dist/tex/latex/base/article.cls" 1520157233 19821 310da678527a7dfe2a02c88af38079b7 ""
  "/usr/share/texmf-dist/tex/latex/base/ifthen.sty" 1520157233 5159 a08c9bbd48fc492f15b22e458bef961f ""
  "/usr/share/texmf-dist/tex/latex/base/inputenc.sty" 1520157233 4732 d63eda807ac82cca2ca8488efd31a966 ""
  "/usr/share/texmf-dist/tex/latex/base/omscmr.fd" 1520157233 2256 80ce1168fb4ce6a85583a9cf8972c013 ""
  "/usr/share/texmf-dist/tex/latex/base/omsenc.dfu" 1520157233 2004 ac51aeac484f08c01026120d62677eca ""
  "/usr/share/texmf-dist/tex/latex/base/ot1enc.dfu" 1520157232 3181 1cb3e9ad01f4a01127b2ffd821bfeec7 ""
  "/usr/share/texmf-dist/tex/latex/base/size10.clo" 1520157232 8292 e897c12e1e886ce77fe26afc5d470886 ""
  "/usr/share/texmf-dist/tex/latex/base/t1enc.dfu" 1520157232 11255 9d97362866549d3d3c994b5f28d1b9b5 ""
  "/usr/share/texmf-dist/tex/latex/base/utf8.def" 1520157232 7784 325a2a09984cb5c4ff230f9867145ad3 ""
  "/usr/share/texmf-dist/tex/latex/biblatex/bbx/numeric.bbx" 1520151865 1672 30daac53a3b9ecb172365211fcaa2ba2 ""
  "/usr/share/texmf-dist/tex/latex/biblatex/bbx/standard.bbx" 1520151865 24058 cd811a83cd43b6abd1663d66fd536cfd ""
  "/usr/share/texmf-dist/tex/latex/biblatex/biblatex.cfg" 1520151865 69 249fa6df04d948e51b6d5c67bea30c42 ""
  "/usr/share/texmf-dist/tex/latex/biblatex/biblatex.def" 1520151865 87588 5ceee97ec5ee6a4dab49ef4a6dc28a1b ""
  "/usr/share/texmf-dist/tex/latex/biblatex/biblatex.sty" 1520151865 424118 1402b1a3a696e6f4e49a786cce7813a4 ""
  "/usr/share/texmf-dist/tex/latex/biblatex/blx-bibtex.def" 1520151865 12041 cfa7bf6fac2ab01d682b944389f5e3f3 ""
  "/usr/share/texmf-dist/tex/latex/biblatex/blx-compat.def" 1520151865 13194 9fbd4a8c96337f2861e1135f26105b22 ""
  "/usr/share/texmf-dist/tex/latex/biblatex/blx-dm.def" 1520151865 30073 10669ddd7ddf93c5f51a4cd567da1d0d ""
  "/usr/share/texmf-dist/tex/latex/biblatex/cbx/numeric.cbx" 1520151865 4578 2d37f6a8c72f47aacef79870545a713d ""
  "/usr/share/texmf-dist/tex/latex/biblatex/lbx/english.lbx" 1520151865 36428 276fde039b559ca03d7fa2a27c765234 ""
  "/usr/share/texmf-dist/tex/latex/blindtext/blindtext.sty" 1520158243 47295 de48b7f8ebf4b54709a2f6b2c7106dd5 ""
  "/usr/share/texmf-dist/tex/latex/etoolbox/etoolbox.sty" 1520157233 43862 d90315ae4a46ef887a38b4ccba021f91 ""
  "/usr/share/texmf-dist/tex/latex/fancyvrb/fancyvrb.sty" 1520157233 45360 a0833d32f1b541964596b02870342d5a ""
  "/usr/share/texmf-dist/tex/latex/geometry/geometry.sty" 1520157233 40502 e003406220954b0716679d7928aedd8a ""
  "/usr/share/texmf-dist/tex/latex/graphics-cfg/color.cfg" 1520157233 1213 620bba36b25224fa9b7e1ccb4ecb76fd ""
  "/usr/share/texmf-dist/tex/latex/graphics-cfg/graphics.cfg" 1520157233 1224 978390e9c2234eab29404bc21b268d1e ""
  "/usr/share/texmf-dist/tex/latex/graphics-def/pdftex.def" 1520157233 17334 520b9b85ad8a2a48eda3f643e27a5179 ""
  "/usr/share/texmf-dist/tex/latex/graphics/dvipsnam.def" 1520157233 4945 c1421f5ee140ec8aa7a12ec5462e7bab ""
  "/usr/share/texmf-dist/tex/latex/graphics/graphics.sty" 1520157233 15275 7d676729b1bedd3e7f3c6717affb366c ""
  "/usr/share/texmf-dist/tex/latex/graphics/graphicx.sty" 1520157233 9066 649f2ccf62888e3d8c3e57256b70b8e1 ""
  "/usr/share/texmf-dist/tex/latex/graphics/keyval.sty" 1520157233 2594 d18d5e19aa8239cf867fa670c556d2e9 ""
  "/usr/share/texmf-dist/tex/latex/graphics/trig.sty" 1520157233 3980 0a268fbfda01e381fa95821ab13b6aee ""
  "/usr/share/texmf-dist/tex/latex/hyperref/hpdftex.def" 1520157233 51699 9069fc983fff0db91d59a15af144ad62 ""
  "/usr/share/texmf-dist/tex/latex/hyperref/hyperref.sty" 1520157233 234088 2c849389d62d41c593d9f5176c4116ab ""
  "/usr/share/texmf-dist/tex/latex/hyperref/nameref.sty" 1520157233 12949 81e4e808884a8f0e276b69410e234656 ""
  "/usr/share/texmf-dist/tex/latex/hyperref/pd1enc.def" 1520157233 14098 4e70bf396c7c265bd8b0e5cab3fd3d4d ""
  "/usr/share/texmf-dist/tex/latex/latexconfig/epstopdf-sys.cfg" 1520157233 678 4792914a8f45be57bb98413425e4c7af ""
  "/usr/share/texmf-dist/tex/latex/latexconfig/hyperref.cfg" 1520157233 235 6031e5765137be07eed51a510b2b8fb7 ""
  "/usr/share/texmf-dist/tex/latex/listings/listings.cfg" 1520157232 1827 d72ad54409ca5c1068a1939c63441bd2 ""
  "/usr/share/texmf-dist/tex/latex/listings/listings.sty" 1520157232 80336 ff90c926c3d7bfdaa3d80ca57123b0bb ""
  "/usr/share/texmf-dist/tex/latex/listings/lstmisc.sty" 1520157232 77028 c3eb00afb55a32bc13ca8da7f5234377 ""
  "/usr/share/texmf-dist/tex/latex/logreq/logreq.def" 1520151865 1620 fb1c32b818f2058eca187e5c41dfae77 ""
  "/usr/share/texmf-dist/tex/latex/logreq/logreq.sty" 1520151865 6187 b27afc771af565d3a9ff1ca7d16d0d46 ""
  "/usr/share/texmf-dist/tex/latex/oberdiek/auxhook.sty" 1520157232 3834 4363110eb0ef1eb2b71c8fcbcdb6c357 ""
  "/usr/share/texmf-dist/tex/latex/oberdiek/epstopdf-base.sty" 1520157232 12095 5337833c991d80788a43d3ce26bd1c46 ""
  "/usr/share/texmf-dist/tex/latex/oberdiek/grfext.sty" 1520157232 7075 2fe3d848bba95f139de11ded085e74aa ""
  "/usr/share/texmf-dist/tex/latex/oberdiek/kvoptions.sty" 1520157232 22417 1d9df1eb66848aa31b18a593099cf45c ""
  "/usr/share/texmf-dist/tex/latex/oberdiek/rerunfilecheck.sty" 1520157232 9581 023642318cef9f4677efe364de1e2a27 ""
  "/usr/share/texmf-dist/tex/latex/tools/verbatim.sty" 1520157231 7264 cf839ee7f0c2bfc711b0b88970764569 ""
  "/usr/share/texmf-dist/tex/latex/tools/xspace.sty" 1520157231 4544 8b8f59969458e1c25e0559e8e0ced1a4 ""
  "/usr/share/texmf-dist/tex/latex/url/url.sty" 1520157231 12796 8edb7d69a20b857904dd0ea757c14ec9 ""
  "/usr/share/texmf-dist/tex/latex/xcolor/xcolor.sty" 1520157230 55589 34128738f682d033422ca125f82e5d62 ""
  "/usr/share/texmf-dist/web2c/texmf.cnf" 1520157258 32585 d82bbcf7626b7842c87671687479e852 ""
  "/var/lib/texmf/fonts/map/pdftex/updmap/pdftex.map" 1522475192 334558 251d30f17b3577cdd1466e2c153b195d ""
  "/var/lib/texmf/web2c/pdftex/pdflatex.fmt" 1520351678 7738160 cdbc168333adc2e8b03d1537cc722d41 ""
  "doc.aux" 1523439965 7512 2bd016ebf61e4201d081a41f0b9304a1 ""
  "doc.bbl" 1523439964 1799 3e5d888f8c6e1308c2abf66a7ab09646 "bibtex doc"
  "doc.out" 1523439965 1961 f04117ca8f9d2767b05f4259a3dda864 ""
  "doc.run.xml" 1523439965 2506 582122ea17f322f81036c375482cac70 ""
  "doc.tex" 1523439962 17045 d7d04c55e285ca93e6458b2fb93e6941 ""
  "doc.toc" 1523439965 3605 2ee36c01b4e3eadc9606f5a48f744314 ""
  "img/bootp_msg.png" 1520347802 36385 cbb455688a3540d3e159dfa83262ced0 ""
  "img/network.png" 1520416393 20518 08c12a2417ea6d02b24ed5a5ca5dd447 ""
  "loga/BUT_color_PANTONE_EN.pdf" 1479314002 304047 dab8a6a7667036ccd571e67129d820f8 ""
  (generated)
  "doc-blx.bib"
  "doc.out"
  "doc.toc"
  "doc.pdf"
  "doc.aux"
  "doc.run.xml"
  "doc.log"
